Inicio
    Leer "Ingresa el valor de un lado del triangulo", lado
        perimetro= lado * 3;
    si(lado>0)
        Escribir "El perimetro es: ", perimetro;
            si(lado<0)
                Escribir "Ingrese una cantidad correcta"
            Fin si
    Fin si
Fin